<svg id="Group_2" data-name="Group 2" xmlns="http://www.w3.org/2000/svg" viewBox="293 547 55 55">
  <defs>
    <style>
      .cls-1 {
        fill: #23cb3f;
      }

      .cls-2 {
        fill: #fff;
      }
    </style>
  </defs>
  <circle id="Ellipse_5" data-name="Ellipse 5" class="cls-1" cx="27.5" cy="27.5" r="27.5" transform="translate(293 547)"/>
  <g id="Group_1" data-name="Group 1" transform="translate(16 41)">
    <rect id="Rectangle_2" data-name="Rectangle 2" class="cls-2" width="3.431" height="24.2" transform="translate(303.135 521)"/>
    <rect id="Rectangle_3" data-name="Rectangle 3" class="cls-2" width="3.361" height="24.7" transform="translate(317.2 531.419) rotate(90)"/>
  </g>
</svg>
